Waveforms/TEK00017.CSV

Model,TBS2102B
Firmware Version,v1.31.14

Point Format,Y
Horizontal Units,S
Horizontal Scale,1e-06
Sample Interval,1e-09
Filter Frequency,2e+08
Record Length,20000
Gating,0.0% to 100.0%
Probe Attenuation,1
Vertical Units,V
Vertical Offset,0
Vertical Scale,0.1
Label,
TIME,CH1
-1.0000e-05,-0.00640626
-9.9990e-06,-0.00637501
-9.9980e-06,-0.00634376
-9.9970e-06,-0.00640626
-9.9960e-06,-0.00645313
-9.9950e-06,-0.00637501
-9.9940e-06,-0.00632813
-9.9930e-06,-0.00632813
-9.9920e-06,-0.00637501
-9.9910e-06,-0.00634376
-9.9900e-06,-0.00642188
-9.9890e-06,-0.00645313
-9.9880e-06,-0.00653126
-9.9870e-06,-0.00651563
-9.9860e-06,-0.00648438
-9.9850e-06,-0.00651563
-9.9840e-06,-0.00520313
-9.9830e-06,-0.00512501
-9.9820e-06,-0.00512501
-9.9810e-06,-0.00517188
-9.9800e-06,-0.00529688
-9.9790e-06,-0.00534376
-9.9780e-06,-0.00531251
-9.9770e-06,-0.00653126
-9.9760e-06,-0.00651563
-9.9750e-06,-0.00648438
-9.9740e-06,-0.00648438
-9.9730e-06,-0.00637501
-9.9720e-06,-0.00531251
-9.9710e-06,-0.00534376
-9.9700e-06,-0.00529688
-9.9690e-06,-0.00521876
-9.9680e-06,-0.00523438
-9.9670e-06,-0.00523438
-9.9660e-06,-0.00520313
-9.9650e-06,-0.00518751
-9.9640e-06,-0.00517188
-9.9630e-06,-0.00515626
-9.9620e-06,-0.00518751
-9.9610e-06,-0.00512501
-9.9600e-06,-0.00514063
-9.9590e-06,-0.00639063
-9.9580e-06,-0.00642188
-9.9570e-06,-0.00642188
-9.9560e-06,-0.00646876
-9.9550e-06,-0.00645313
-9.9540e-06,-0.00642188
-9.9530e-06,-0.00646876
-9.9520e-06,-0.00643751
-9.9510e-06,-0.00528126
-9.9500e-06,-0.00520313
-9.9490e-06,-0.00517188
-9.9480e-06,-0.00520313
-9.9470e-06,-0.00515626
-9.9460e-06,-0.00510938
-9.9450e-06,-0.00523438
-9.9440e-06,-0.00520313
-9.9430e-06,-0.00525001
-9.9420e-06,-0.00528126
-9.9410e-06,-0.00520313
-9.9400e-06,-0.00512501
-9.9390e-06,-0.00646876
-9.9380e-06,-0.00645313
-9.9370e-06,-0.00510938
-9.9360e-06,-0.00509376
-9.9350e-06,-0.00507813
-9.9340e-06,-0.00639063
-9.9330e-06,-0.00634376
-9.9320e-06,-0.00643751
-9.9310e-06,-0.00635938
-9.9300e-06,-0.00637501
-9.9290e-06,-0.00648438
-9.9280e-06,-0.00645313
-9.9270e-06,-0.00648438
-9.9260e-06,-0.00646876
-9.9250e-06,-0.00518751
-9.9240e-06,-0.00514063
-9.9230e-06,-0.00521876
-9.9220e-06,-0.00528126
-9.9210e-06,-0.00523438
-9.9200e-06,-0.00643751
-9.9190e-06,-0.00639063
-9.9180e-06,-0.00637501
-9.9170e-06,-0.00634376
-9.9160e-06,-0.00637501
-9.9150e-06,-0.00518751
-9.9140e-06,-0.00525001
-9.9130e-06,-0.00529688
-9.9120e-06,-0.00532813
-9.9110e-06,-0.00525001
-9.9100e-06,-0.00515626
-9.9090e-06,-0.00517188
-9.9080e-06,-0.00517188
-9.9070e-06,-0.00518751
-9.9060e-06,-0.00650001
-9.9050e-06,-0.00646876
-9.9040e-06,-0.00643751
-9.9030e-06,-0.00643751
-9.9020e-06,-0.00635938
-9.9010e-06,-0.00628126
-9.9000e-06,-0.00628126
-9.8990e-06,-0.00632813
-9.8980e-06,-0.00634376
-9.8970e-06,-0.00528126
-9.8960e-06,-0.00529688
-9.8950e-06,-0.00537501
-9.8940e-06,-0.00534376
-9.8930e-06,-0.00532813
-9.8920e-06,-0.00532813
-9.8910e-06,-0.00523438
-9.8900e-06,-0.00535938
-9.8890e-06,-0.00540626
-9.8880e-06,-0.00537501
-9.8870e-06,-0.00650001
-9.8860e-06,-0.00643751
-9.8850e-06,-0.00645313
-9.8840e-06,-0.00643751
-9.8830e-06,-0.00643751
-9.8820e-06,-0.00645313
-9.8810e-06,-0.00645313
-9.8800e-06,-0.00642188
-9.8790e-06,-0.00635938
-9.8780e-06,-0.00526563
-9.8770e-06,-0.00523438
-9.8760e-06,-0.00523438
-9.8750e-06,-0.00534376
-9.8740e-06,-0.00532813
-9.8730e-06,-0.00525001
-9.8720e-06,-0.00640626
-9.8710e-06,-0.00639063
-9.8700e-06,-0.00639063
-9.8690e-06,-0.00634376
-9.8680e-06,-0.00628126
-9.8670e-06,-0.00629688
-9.8660e-06,-0.00629688
-9.8650e-06,-0.00517188
-9.8640e-06,-0.00517188
-9.8630e-06,-0.00510938
-9.8620e-06,-0.00509376
-9.8610e-06,-0.00510938
-9.8600e-06,-0.00506251
-9.8590e-06,-0.00509376
-9.8580e-06,-0.00509376
-9.8570e-06,-0.00504688
-9.8560e-06,-0.00632813
-9.8550e-06,-0.00628126
-9.8540e-06,-0.00634376
-9.8530e-06,-0.00634376
-9.8520e-06,-0.00645313
-9.8510e-06,-0.00645313
-9.8500e-06,-0.00643751
-9.8490e-06,-0.00645313
-9.8480e-06,-0.00646876
-9.8470e-06,-0.00642188
-9.8460e-06,-0.00646876
-9.8450e-06,-0.00645313
-9.8440e-06,-0.00640626
-9.8430e-06,-0.00643751
-9.8420e-06,-0.00526563
-9.8410e-06,-0.00529688
-9.8400e-06,-0.00526563
-9.8390e-06,-0.00525001
-9.8380e-06,-0.00525001
-9.8370e-06,-0.00525001
-9.8360e-06,-0.00521876
-9.8350e-06,-0.00517188
-9.8340e-06,-0.00514063
-9.8330e-06,-0.00517188
-9.8320e-06,-0.00629688
-9.8310e-06,-0.00639063
-9.8300e-06,-0.00637501
-9.8290e-06,-0.00635938
-9.8280e-06,-0.00640626
-9.8270e-06,-0.00637501
-9.8260e-06,-0.00523438
-9.8250e-06,-0.00537501
-9.8240e-06,-0.00539063
-9.8230e-06,-0.00535938
-9.8220e-06,-0.00648438
-9.8210e-06,-0.00643751
-9.8200e-06,-0.00643751
-9.8190e-06,-0.00642188
-9.8180e-06,-0.00645313
-9.8170e-06,-0.00640626
-9.8160e-06,-0.00646876
-9.8150e-06,-0.00646876
-9.8140e-06,-0.00648438
-9.8130e-06,-0.00646876
-9.8120e-06,-0.00634376
-9.8110e-06,-0.00637501
-9.8100e-06,-0.00635938
-9.8090e-06,-0.00629688
-9.8080e-06,-0.00631251
-9.8070e-06,-0.00631251
-9.8060e-06,-0.00634376
-9.8050e-06,-0.00643751
-9.8040e-06,-0.00640626
-9.8030e-06,-0.00640626
-9.8020e-06,-0.00525001
-9.8010e-06,-0.00529688
-9.8000e-06,-0.00525001
-9.7990e-06,-0.00523438
-9.7980e-06,-0.00529688
-9.7970e-06,-0.00528126
-9.7960e-06,-0.00526563
-9.7950e-06,-0.00523438
-9.7940e-06,-0.00523438
-9.7930e-06,-0.00517188
-9.7920e-06,-0.00512501
-9.7910e-06,-0.00509376
-9.7900e-06,-0.00510938
-9.7890e-06,-0.00514063
-9.7880e-06,-0.00515626
-9.7870e-06,-0.00521876
-9.7860e-06,-0.00515626
-9.7850e-06,-0.00510938
-9.7840e-06,-0.00517188
-9.7830e-06,-0.00521876
-9.7820e-06,-0.00525001
-9.7810e-06,-0.00532813
-9.7800e-06,-0.00526563
-9.7790e-06,-0.00526563
-9.7780e-06,-0.00520313
-9.7770e-06,-0.00520313
-9.7760e-06,-0.00521876
-9.7750e-06,-0.00518751
-9.7740e-06,-0.00626563
-9.7730e-06,-0.00634376
-9.7720e-06,-0.00632813
-9.7710e-06,-0.00632813
-9.7700e-06,-0.00632813
-9.7690e-06,-0.00621876
-9.7680e-06,-0.00629688
-9.7670e-06,-0.00521876
-9.7660e-06,-0.00514063
-9.7650e-06,-0.00518751
-9.7640e-06,-0.00523438
-9.7630e-06,-0.00514063
-9.7620e-06,-0.00509376
-9.7610e-06,-0.00509376
-9.7600e-06,-0.00507813
-9.7590e-06,-0.00510938
-9.7580e-06,-0.00514063
-9.7570e-06,-0.00510938
-9.7560e-06,-0.00506251
-9.7550e-06,-0.00510938
-9.7540e-06,-0.00503126
-9.7530e-06,-0.00507813
-9.7520e-06,-0.00507813
-9.7510e-06,-0.00639063
-9.7500e-06,-0.00640626
-9.7490e-06,-0.00648438
-9.7480e-06,-0.00646876
-9.7470e-06,-0.00646876
-9.7460e-06,-0.00518751
-9.7450e-06,-0.00635938
-9.7440e-06,-0.00642188
-9.7430e-06,-0.00635938
-9.7420e-06,-0.00632813
-9.7410e-06,-0.00629688
-9.7400e-06,-0.00628126
-9.7390e-06,-0.00515626
-9.7380e-06,-0.00512501
-9.7370e-06,-0.00523438
-9.7360e-06,-0.00523438
-9.7350e-06,-0.00515626
-9.7340e-06,-0.00514063
-9.7330e-06,-0.00514063
-9.7320e-06,-0.00629688
-9.7310e-06,-0.00625001
-9.7300e-06,-0.00625001
-9.7290e-06,-0.00626563
-9.7280e-06,-0.00512501
-9.7270e-06,-0.00525001
-9.7260e-06,-0.00532813
-9.7250e-06,-0.00520313
-9.7240e-06,-0.00521876
-9.7230e-06,-0.00521876
-9.7220e-06,-0.00525001
-9.7210e-06,-0.00518751
-9.7200e-06,-0.00520313
-9.7190e-06,-0.00628126
-9.7180e-06,-0.00628126
-9.7170e-06,-0.00626563
-9.7160e-06,-0.00631251
-9.7150e-06,-0.00635938
-9.7140e-06,-0.00629688
-9.7130e-06,-0.00640626
-9.7120e-06,-0.00514063
-9.7110e-06,-0.00510938
-9.7100e-06,-0.00512501
-9.7090e-06,-0.00514063
-9.7080e-06,-0.00514063
-9.7070e-06,-0.00515626
-9.7060e-06,-0.00525001
-9.7050e-06,-0.00518751
-9.7040e-06,-0.00514063
-9.7030e-06,-0.00509376
-9.7020e-06,-0.00510938
-9.7010e-06,-0.00514063
-9.7000e-06,-0.00645313
-9.6990e-06,-0.00645313
-9.6980e-06,-0.00650001
-9.6970e-06,-0.00648438
-9.6960e-06,-0.00635938
-9.6950e-06,-0.00634376
-9.6940e-06,-0.00634376
-9.6930e-06,-0.00517188
-9.6920e-06,-0.00648438
-9.6910e-06,-0.00648438
-9.6900e-06,-0.00643751
-9.6890e-06,-0.00645313
-9.6880e-06,-0.00640626
-9.6870e-06,-0.00507813
-9.6860e-06,-0.00515626
-9.6850e-06,-0.00525001
-9.6840e-06,-0.00518751
-9.6830e-06,-0.00517188
-9.6820e-06,-0.00515626
-9.6810e-06,-0.00515626
-9.6800e-06,-0.00521876
-9.6790e-06,-0.00514063
-9.6780e-06,-0.00523438
-9.6770e-06,-0.00520313
-9.6760e-06,-0.00518751
-9.6750e-06,-0.00629688
-9.6740e-06,-0.00618751
-9.6730e-06,-0.00620313
-9.6720e-06,-0.00629688
-9.6710e-06,-0.00635938
-9.6700e-06,-0.00629688
-9.6690e-06,-0.00640626
-9.6680e-06,-0.00634376
-9.6670e-06,-0.00640626
-9.6660e-06,-0.00640626
-9.6650e-06,-0.00637501
-9.6640e-06,-0.00629688
-9.6630e-06,-0.00612501
-9.6620e-06,-0.00610938
-9.6610e-06,-0.00620313
-9.6600e-06,-0.00626563
-9.6590e-06,-0.00632813
-9.6580e-06,-0.00631251
-9.6570e-06,-0.00642188
-9.6560e-06,-0.00639063
-9.6550e-06,-0.00639063
-9.6540e-06,-0.00625001
-9.6530e-06,-0.00632813
-9.6520e-06,-0.00629688
-9.6510e-06,-0.00626563
-9.6500e-06,-0.00626563
-9.6490e-06,-0.00626563
-9.6480e-06,-0.00631251
-9.6470e-06,-0.00639063
-9.6460e-06,-0.00643751
-9.6450e-06,-0.00645313
-9.6440e-06,-0.00640626
-9.6430e-06,-0.00637501
-9.6420e-06,-0.00634376
-9.6410e-06,-0.00634376
-9.6400e-06,-0.00637501
-9.6390e-06,-0.00623438
-9.6380e-06,-0.00626563
-9.6370e-06,-0.00621876
-9.6360e-06,-0.00621876
-9.6350e-06,-0.00625001
-9.6340e-06,-0.00620313
-9.6330e-06,-0.00628126
-9.6320e-06,-0.00635938
-9.6310e-06,-0.00632813
-9.6300e-06,-0.00632813
-9.6290e-06,-0.00631251
-9.6280e-06,-0.00620313
-9.6270e-06,-0.00625001
-9.6260e-06,-0.00626563
-9.6250e-06,-0.00629688
-9.6240e-06,-0.00639063
-9.6230e-06,-0.00632813
-9.6220e-06,-0.00640626
-9.6210e-06,-0.00637501
-9.6200e-06,-0.00625001
-9.6190e-06,-0.00634376
-9.6180e-06,-0.00646876
-9.6170e-06,-0.00651563
-9.6160e-06,-0.00648438
-9.6150e-06,-0.00654688
-9.6140e-06,-0.00645313
-9.6130e-06,-0.00646876
-9.6120e-06,-0.00642188
-9.6110e-06,-0.00639063
-9.6100e-06,-0.00639063
-9.6090e-06,-0.00635938
-9.6080e-06,-0.00639063
-9.6070e-06,-0.00639063
-9.6060e-06,-0.00637501
-9.6050e-06,-0.00629688
-9.6040e-06,-0.00625001
-9.6030e-06,-0.00632813
-9.6020e-06,-0.00632813
-9.6010e-06,-0.00631251
-9.6000e-06,-0.00629688
-9.5990e-06,-0.00514063
-9.5980e-06,-0.00514063
-9.5970e-06,-0.00514063
-9.5960e-06,-0.00518751
-9.5950e-06,-0.00514063
-9.5940e-06,-0.00518751
-9.5930e-06,-0.00512501
-9.5920e-06,-0.00507813
-9.5910e-06,-0.00507813
-9.5900e-06,-0.00514063
-9.5890e-06,-0.00518751
-9.5880e-06,-0.00514063
-9.5870e-06,-0.00631251
-9.5860e-06,-0.00631251
-9.5850e-06,-0.00623438
-9.5840e-06,-0.00621876
-9.5830e-06,-0.00620313
-9.5820e-06,-0.00621876
-9.5810e-06,-0.00629688
-9.5800e-06,-0.00626563
-9.5790e-06,-0.00631251
-9.5780e-06,-0.00628126
-9.5770e-06,-0.00640626
-9.5760e-06,-0.00642188
-9.5750e-06,-0.00628126
-9.5740e-06,-0.00621876
-9.5730e-06,-0.00628126
-9.5720e-06,-0.00625001
-9.5710e-06,-0.00617188
-9.5700e-06,-0.00621876
-9.5690e-06,-0.00614063
-9.5680e-06,-0.00618751
-9.5670e-06,-0.00623438
-9.5660e-06,-0.00632813
-9.5650e-06,-0.00631251
-9.5640e-06,-0.00629688
-9.5630e-06,-0.00625001
-9.5620e-06,-0.00621876
-9.5610e-06,-0.00631251
-9.5600e-06,-0.00629688
-9.5590e-06,-0.00626563
-9.5580e-06,-0.00631251
-9.5570e-06,-0.00631251
-9.5560e-06,-0.00631251
-9.5550e-06,-0.00626563
-9.5540e-06,-0.00623438
-9.5530e-06,-0.00623438
-9.5520e-06,-0.00618751
-9.5510e-06,-0.00629688
-9.5500e-06,-0.00620313
-9.5490e-06,-0.00625001
-9.5480e-06,-0.00634376
-9.5470e-06,-0.00634376
-9.5460e-06,-0.00628126
-9.5450e-06,-0.00631251
-9.5440e-06,-0.00634376
-9.5430e-06,-0.00632813
-9.5420e-06,-0.00635938
-9.5410e-06,-0.00632813
-9.5400e-06,-0.00631251
-9.5390e-06,-0.00632813
-9.5380e-06,-0.00628126
-9.5370e-06,-0.00620313
-9.5360e-06,-0.00514063
-9.5350e-06,-0.00512501
-9.5340e-06,-0.00512501
-9.5330e-06,-0.00514063
-9.5320e-06,-0.00514063
-9.5310e-06,-0.00628126
-9.5300e-06,-0.00645313
-9.5290e-06,-0.00642188
-9.5280e-06,-0.00631251
-9.5270e-06,-0.00634376
-9.5260e-06,-0.00629688
-9.5250e-06,-0.00618751
-9.5240e-06,-0.00621876
-9.5230e-06,-0.00617188
-9.5220e-06,-0.00617188
-9.5210e-06,-0.00625001
-9.5200e-06,-0.00625001
-9.5190e-06,-0.00628126
-9.5180e-06,-0.00629688
-9.5170e-06,-0.00629688
-9.5160e-06,-0.00637501
-9.5150e-06,-0.00631251
-9.5140e-06,-0.00629688
-9.5130e-06,-0.00626563
-9.5120e-06,-0.00626563
-9.5110e-06,-0.00629688
-9.5100e-06,-0.00632813
-9.5090e-06,-0.00637501
-9.5080e-06,-0.00632813
-9.5070e-06,-0.00643751
-9.5060e-06,-0.00646876
-9.5050e-06,-0.00635938
-9.5040e-06,-0.00635938
-9.5030e-06,-0.00634376
-9.5020e-06,-0.00632813
-9.5010e-06,-0.00629688
-9.5000e-06,-0.00626563
-9.4990e-06,-0.00623438
-9.4980e-06,-0.00621876
-9.4970e-06,-0.00625001
-9.4960e-06,-0.00631251
-9.4950e-06,-0.00635938
-9.4940e-06,-0.00628126
-9.4930e-06,-0.00629688
-9.4920e-06,-0.00628126
-9.4910e-06,-0.00632813
-9.4900e-06,-0.00631251
-9.4890e-06,-0.00626563
-9.4880e-06,-0.00623438
-9.4870e-06,-0.00618751
-9.4860e-06,-0.00628126
-9.4850e-06,-0.00629688
-9.4840e-06,-0.00631251
-9.4830e-06,-0.00635938
-9.4820e-06,-0.00621876
-9.4810e-06,-0.00634376
-9.4800e-06,-0.00621876
-9.4790e-06,-0.00618751
-9.4780e-06,-0.00620313
-9.4770e-06,-0.00621876
-9.4760e-06,-0.00617188
-9.4750e-06,-0.00612501
-9.4740e-06,-0.00620313
-9.4730e-06,-0.00621876
-9.4720e-06,-0.00625001
-9.4710e-06,-0.00626563
-9.4700e-06,-0.00631251
-9.4690e-06,-0.00634376
-9.4680e-06,-0.00634376
-9.4670e-06,-0.00631251
-9.4660e-06,-0.00615626
-9.4650e-06,-0.00620313
-9.4640e-06,-0.00631251
-9.4630e-06,-0.00631251
-9.4620e-06,-0.00629688
-9.4610e-06,-0.00629688
-9.4600e-06,-0.00626563
-9.4590e-06,-0.00629688
-9.4580e-06,-0.00625001
-9.4570e-06,-0.00618751
-9.4560e-06,-0.00614063
-9.4550e-06,-0.00626563
-9.4540e-06,-0.00628126
-9.4530e-06,-0.00632813
-9.4520e-06,-0.00629688
-9.4510e-06,-0.00629688
-9.4500e-06,-0.00632813
-9.4490e-06,-0.00635938
-9.4480e-06,-0.00635938
-9.4470e-06,-0.00631251
-9.4460e-06,-0.00628126
-9.4450e-06,-0.00620313
-9.4440e-06,-0.00621876
-9.4430e-06,-0.00629688
-9.4420e-06,-0.00618751
-9.4410e-06,-0.00617188
-9.4400e-06,-0.00614063
-9.4390e-06,-0.00610938
-9.4380e-06,-0.00604688
-9.4370e-06,-0.00617188
-9.4360e-06,-0.00614063
-9.4350e-06,-0.00610938
-9.4340e-06,-0.00625001
-9.4330e-06,-0.00632813
-9.4320e-06,-0.00637501
-9.4310e-06,-0.00639063
-9.4300e-06,-0.00628126
-9.4290e-06,-0.00626563
-9.4280e-06,-0.00631251
-9.4270e-06,-0.00643751
-9.4260e-06,-0.00629688
-9.4250e-06,-0.00628126
-9.4240e-06,-0.00628126
-9.4230e-06,-0.00618751
-9.4220e-06,-0.00634376
-9.4210e-06,-0.00634376
-9.4200e-06,-0.00631251
-9.4190e-06,-0.00629688
-9.4180e-06,-0.00626563
-9.4170e-06,-0.00621876
-9.4160e-06,-0.00618751
-9.4150e-06,-0.00625001
-9.4140e-06,-0.00625001
-9.4130e-06,-0.00626563
-9.4120e-06,-0.00623438
-9.4110e-06,-0.00621876
-9.4100e-06,-0.00623438
-9.4090e-06,-0.00632813
-9.4080e-06,-0.00634376
-9.4070e-06,-0.00642188
-9.4060e-06,-0.00646876
-9.4050e-06,-0.00634376
-9.4040e-06,-0.00626563
-9.4030e-06,-0.00610938
-9.4020e-06,-0.00620313
-9.4010e-06,-0.00618751
-9.4000e-06,-0.00621876
-9.3990e-06,-0.00629688
-9.3980e-06,-0.00632813
-9.3970e-06,-0.00617188
-9.3960e-06,-0.00626563
-9.3950e-06,-0.00631251
-9.3940e-06,-0.00625001
-9.3930e-06,-0.00631251
-9.3920e-06,-0.00631251
-9.3910e-06,-0.00625001
-9.3900e-06,-0.00623438
-9.3890e-06,-0.00621876
-9.3880e-06,-0.00620313
-9.3870e-06,-0.00623438
-9.3860e-06,-0.00626563
-9.3850e-06,-0.00623438
-9.3840e-06,-0.00628126
-9.3830e-06,-0.00628126
-9.3820e-06,-0.00632813
-9.3810e-06,-0.00631251
-9.3800e-06,-0.00634376
-9.3790e-06,-0.00625001
-9.3780e-06,-0.00628126
-9.3770e-06,-0.00621876
-9.3760e-06,-0.00628126
-9.3750e-06,-0.00628126
-9.3740e-06,-0.00635938
-9.3730e-06,-0.00639063
-9.3720e-06,-0.00639063
-9.3710e-06,-0.00629688
-9.3700e-06,-0.00631251
-9.3690e-06,-0.00634376
-9.3680e-06,-0.00625001
-9.3670e-06,-0.00617188
-9.3660e-06,-0.00618751
-9.3650e-06,-0.00628126
-9.3640e-06,-0.00628126
-9.3630e-06,-0.00629688
-9.3620e-06,-0.00626563
-9.3610e-06,-0.00621876
-9.3600e-06,-0.00618751
-9.3590e-06,-0.00626563
-9.3580e-06,-0.00625001
-9.3570e-06,-0.00628126
-9.3560e-06,-0.00637501
-9.3550e-06,-0.00629688
-9.3540e-06,-0.00628126
-9.3530e-06,-0.00628126
-9.3520e-06,-0.00623438
-9.3510e-06,-0.00620313
-9.3500e-06,-0.00623438
-9.3490e-06,-0.00617188
-9.3480e-06,-0.00606251
-9.3470e-06,-0.00612501
-9.3460e-06,-0.00606251
-9.3450e-06,-0.00614063
-9.3440e-06,-0.00623438
-9.3430e-06,-0.00631251
-9.3420e-06,-0.00626563
-9.3410e-06,-0.00621876
-9.3400e-06,-0.00640626
-9.3390e-06,-0.00651563
-9.3380e-06,-0.00659376
-9.3370e-06,-0.00651563
-9.3360e-06,-0.00640626
-9.3350e-06,-0.00640626
-9.3340e-06,-0.00629688
-9.3330e-06,-0.00628126
-9.3320e-06,-0.00626563
-9.3310e-06,-0.00626563
-9.3300e-06,-0.00612501
-9.3290e-06,-0.00612501
-9.3280e-06,-0.00617188
-9.3270e-06,-0.00621876
-9.3260e-06,-0.00629688
-9.3250e-06,-0.00623438
-9.3240e-06,-0.00629688
-9.3230e-06,-0.00628126
-9.3220e-06,-0.00632813
-9.3210e-06,-0.00639063
-9.3200e-06,-0.00632813
-9.3190e-06,-0.00620313
-9.3180e-06,-0.00607813
-9.3170e-06,-0.00625001
-9.3160e-06,-0.00625001
-9.3150e-06,-0.00625001
-9.3140e-06,-0.00628126
-9.3130e-06,-0.00625001
-9.3120e-06,-0.00628126
-9.3110e-06,-0.00629688
-9.3100e-06,-0.00629688
-9.3090e-06,-0.00623438
-9.3080e-06,-0.00623438
-9.3070e-06,-0.00621876
-9.3060e-06,-0.00618751
-9.3050e-06,-0.00623438
-9.3040e-06,-0.00621876
-9.3030e-06,-0.00617188
-9.3020e-06,-0.00629688
-9.3010e-06,-0.00629688
-9.3000e-06,-0.00632813
-9.2990e-06,-0.00639063
-9.2980e-06,-0.00637501
-9.2970e-06,-0.00645313
-9.2960e-06,-0.00637501
-9.2950e-06,-0.00629688
-9.2940e-06,-0.00631251
-9.2930e-06,-0.00629688
-9.2920e-06,-0.00618751
-9.2910e-06,-0.00617188
-9.2900e-06,-0.00621876
-9.2890e-06,-0.00626563
-9.2880e-06,-0.00621876
-9.2870e-06,-0.00621876
-9.2860e-06,-0.00629688
-9.2850e-06,-0.00631251
-9.2840e-06,-0.00632813
-9.2830e-06,-0.00626563
-9.2820e-06,-0.00621876
-9.2810e-06,-0.00618751
-9.2800e-06,-0.00618751
-9.2790e-06,-0.00617188
-9.2780e-06,-0.00617188
-9.2770e-06,-0.00629688
-9.2760e-06,-0.00631251
-9.2750e-06,-0.00645313
-9.2740e-06,-0.00632813
-9.2730e-06,-0.00625001
-9.2720e-06,-0.00623438
-9.2710e-06,-0.00632813
-9.2700e-06,-0.00637501
-9.2690e-06,-0.00642188
-9.2680e-06,-0.00640626
-9.2670e-06,-0.00628126
-9.2660e-06,-0.00629688
-9.2650e-06,-0.00629688
-9.2640e-06,-0.00626563
-9.2630e-06,-0.00632813
-9.2620e-06,-0.00640626
-9.2610e-06,-0.00629688
-9.2600e-06,-0.00632813
-9.2590e-06,-0.00629688
-9.2580e-06,-0.00632813
-9.2570e-06,-0.00632813
-9.2560e-06,-0.00632813
-9.2550e-06,-0.00632813
-9.2540e-06,-0.00631251
-9.2530e-06,-0.00623438
-9.2520e-06,-0.00615626
-9.2510e-06,-0.00618751
-9.2500e-06,-0.00615626
-9.2490e-06,-0.00614063
-9.2480e-06,-0.00620313
-9.2470e-06,-0.00617188
-9.2460e-06,-0.00629688
-9.2450e-06,-0.00631251
-9.2440e-06,-0.00631251
-9.2430e-06,-0.00634376
-9.2420e-06,-0.00631251
-9.2410e-06,-0.00634376
-9.2400e-06,-0.00632813
-9.2390e-06,-0.00625001
-9.2380e-06,-0.00618751
-9.2370e-06,-0.00621876
-9.2360e-06,-0.00621876
-9.2350e-06,-0.00614063
-9.2340e-06,-0.00635938
-9.2330e-06,-0.00637501
-9.2320e-06,-0.00632813
-9.2310e-06,-0.00629688
-9.2300e-06,-0.00639063
-9.2290e-06,-0.00631251
-9.2280e-06,-0.00635938
-9.2270e-06,-0.00643751
-9.2260e-06,-0.00637501
-9.2250e-06,-0.00642188
-9.2240e-06,-0.00643751
-9.2230e-06,-0.00642188
-9.2220e-06,-0.00643751
-9.2210e-06,-0.00628126
-9.2200e-06,-0.00631251
-9.2190e-06,-0.00637501
-9.2180e-06,-0.00642188
-9.2170e-06,-0.00639063
-9.2160e-06,-0.00642188
-9.2150e-06,-0.00643751
-9.2140e-06,-0.00640626
-9.2130e-06,-0.00639063
-9.2120e-06,-0.00637501
-9.2110e-06,-0.00618751
-9.2100e-06,-0.00628126
-9.2090e-06,-0.00632813
-9.2080e-06,-0.00617188
-9.2070e-06,-0.00623438
-9.2060e-06,-0.00631251
-9.2050e-06,-0.00635938
-9.2040e-06,-0.00631251
-9.2030e-06,-0.00635938
-9.2020e-06,-0.00640626
-9.2010e-06,-0.00640626
-9.2000e-06,-0.00637501
-9.1990e-06,-0.00637501
-9.1980e-06,-0.00634376
-9.1970e-06,-0.00632813
-9.1960e-06,-0.00631251
-9.1950e-06,-0.00629688
-9.1940e-06,-0.00626563
-9.1930e-06,-0.00628126
-9.1920e-06,-0.00509376
-9.1910e-06,-0.00507813
-9.1900e-06,-0.00504688
-9.1890e-06,-0.00514063
-9.1880e-06,-0.00507813
-9.1870e-06,-0.00517188
-9.1860e-06,-0.00632813
-9.1850e-06,-0.00623438
-9.1840e-06,-0.00618751
-9.1830e-06,-0.00621876
-9.1820e-06,-0.00623438
-9.1810e-06,-0.00623438
-9.1800e-06,-0.00520313
